<mxfile host="65bd71144e">
    <diagram name="Page-1" id="2c0d36ab-eaac-3732-788b-9136903baeff">
        <mxGraphModel dx="218" dy="477" grid="1" gridSize="10" guides="1" tooltips="1" connect="1" arrows="1" fold="1" page="1" pageScale="1.5" pageWidth="1169" pageHeight="827" background="none" math="0" shadow="0">
            <root>
                <mxCell id="0"/>
                <mxCell id="1" parent="0"/>
                <mxCell id="122" value="" style="fillColor=#10739E;strokeColor=none;opacity=30;direction=south;" parent="1" vertex="1">
                    <mxGeometry x="100" y="320" width="210" height="110" as="geometry"/>
                </mxCell>
                <mxCell id="118" value="" style="fillColor=#F2931E;strokeColor=none;opacity=30;" parent="1" vertex="1">
                    <mxGeometry x="227" y="445.5" width="163" height="440" as="geometry"/>
                </mxCell>
                <mxCell id="13" value="project_name" style="rounded=1;fillColor=#23445D;gradientColor=none;strokeColor=none;fontColor=#FFFFFF;fontStyle=1;fontFamily=Tahoma;fontSize=14" parent="1" vertex="1">
                    <mxGeometry x="107" y="335.5" width="190" height="80" as="geometry"/>
                </mxCell>
                <mxCell id="16" value="project_related" style="rounded=1;fillColor=#23445D;gradientColor=none;strokeColor=none;fontColor=#FFFFFF;fontStyle=1;fontFamily=Tahoma;fontSize=14" parent="1" vertex="1">
                    <mxGeometry x="237" y="455.5" width="143" height="60" as="geometry"/>
                </mxCell>
                <mxCell id="17" value="unprocessed_data" style="rounded=1;fillColor=#23445D;gradientColor=none;strokeColor=none;fontColor=#FFFFFF;fontStyle=1;fontFamily=Tahoma;fontSize=14;align=center;verticalAlign=middle;" parent="1" vertex="1">
                    <mxGeometry x="237" y="545.5" width="143" height="60" as="geometry"/>
                </mxCell>
                <mxCell id="18" value="processed_data" style="rounded=1;fillColor=#23445D;gradientColor=none;strokeColor=none;fontColor=#FFFFFF;fontStyle=1;fontFamily=Tahoma;fontSize=14" parent="1" vertex="1">
                    <mxGeometry x="237" y="635.5" width="143" height="60" as="geometry"/>
                </mxCell>
                <mxCell id="19" value="dissemination" style="rounded=1;fillColor=#23445D;gradientColor=none;strokeColor=none;fontColor=#FFFFFF;fontStyle=1;fontFamily=Tahoma;fontSize=14" parent="1" vertex="1">
                    <mxGeometry x="237" y="725.5" width="143" height="60" as="geometry"/>
                </mxCell>
                <mxCell id="20" value="misc" style="rounded=1;fillColor=#23445D;gradientColor=none;strokeColor=none;fontColor=#FFFFFF;fontStyle=1;fontFamily=Tahoma;fontSize=14" parent="1" vertex="1">
                    <mxGeometry x="237" y="815.5" width="143" height="60" as="geometry"/>
                </mxCell>
                <mxCell id="64" value="" style="edgeStyle=elbowEdgeStyle;elbow=horizontal;strokeWidth=2;rounded=0" parent="1" source="13" target="16" edge="1">
                    <mxGeometry x="-23" y="135.5" width="100" height="100" as="geometry">
                        <mxPoint x="-23" y="235.5" as="sourcePoint"/>
                        <mxPoint x="77" y="135.5" as="targetPoint"/>
                        <Array as="points">
                            <mxPoint x="202" y="435.5"/>
                        </Array>
                    </mxGeometry>
                </mxCell>
                <mxCell id="65" value="" style="edgeStyle=elbowEdgeStyle;elbow=horizontal;strokeWidth=2;rounded=0" parent="1" source="13" target="17" edge="1">
                    <mxGeometry x="-23" y="135.5" width="100" height="100" as="geometry">
                        <mxPoint x="-23" y="235.5" as="sourcePoint"/>
                        <mxPoint x="77" y="135.5" as="targetPoint"/>
                        <Array as="points">
                            <mxPoint x="202" y="475.5"/>
                        </Array>
                    </mxGeometry>
                </mxCell>
                <mxCell id="66" value="" style="edgeStyle=elbowEdgeStyle;elbow=horizontal;strokeWidth=2;rounded=0" parent="1" source="13" target="18" edge="1">
                    <mxGeometry x="-23" y="135.5" width="100" height="100" as="geometry">
                        <mxPoint x="-23" y="235.5" as="sourcePoint"/>
                        <mxPoint x="77" y="135.5" as="targetPoint"/>
                        <Array as="points">
                            <mxPoint x="202" y="525.5"/>
                        </Array>
                    </mxGeometry>
                </mxCell>
                <mxCell id="67" value="" style="edgeStyle=elbowEdgeStyle;elbow=horizontal;strokeWidth=2;rounded=0" parent="1" source="13" target="19" edge="1">
                    <mxGeometry x="-23" y="135.5" width="100" height="100" as="geometry">
                        <mxPoint x="-23" y="235.5" as="sourcePoint"/>
                        <mxPoint x="77" y="135.5" as="targetPoint"/>
                        <Array as="points">
                            <mxPoint x="202" y="575.5"/>
                        </Array>
                    </mxGeometry>
                </mxCell>
                <mxCell id="68" value="" style="edgeStyle=elbowEdgeStyle;elbow=horizontal;strokeWidth=2;rounded=0" parent="1" source="13" target="20" edge="1">
                    <mxGeometry x="-23" y="135.5" width="100" height="100" as="geometry">
                        <mxPoint x="-23" y="235.5" as="sourcePoint"/>
                        <mxPoint x="77" y="135.5" as="targetPoint"/>
                        <Array as="points">
                            <mxPoint x="202" y="615.5"/>
                        </Array>
                    </mxGeometry>
                </mxCell>
            </root>
        </mxGraphModel>
    </diagram>
</mxfile>