{
    "sample_id": "STP-CAT-001",
    "manufacturer": "Stefan Palkovits",
    "uuid4": "35adc66a-f211-460e-84f2-f866e67b390c",
    "sample_description": "Pt on Graphene",
    "sample_procedures": "Incipient wetness impregnation",
    "parent": "parent sample",
    "child": "child sample",
    "analytics":
        {
            "XRD": ["./XRD/STP-CAT-001_XRD_01.txt", "./XRD/STP-CAT-001_XRD_02.txt"],
            "Sorption": "./Sorption/STP-CAT-001_Sorp.txt"
        },
    "evaluation":
        {
            "XRD": "../processed_data/XRD/STP-CAT-001_XRD.ipynb",
            "Sorption": "../processed_data/Sorption/STP-CAT-001_Sorp.ipynb"
        },
    "dissemination":
        {
            "paper_01": "../dissemination/paper_01/manuscript.ipynb"
        }
}